﻿//=============================================================================
// REQUEST
// Getting the application reviews (first page).
//=============================================================================

GET http://catalog.zune.net/v3.2/ru-RU/apps/eedcc9b7-9f8e-4526-806d-ad0101c62d62/reviews?chunkSize=10 HTTP/1.1
Accept-Encoding: gzip
User-Agent: ZDM/4.0; Windows Mobile 7.0;
Host: catalog.zune.net
Connection: Keep-Alive

//=============================================================================
// REQUEST
// Getting the application reviews (subsequent page).
//=============================================================================

GET http://catalog.zune.net/v3.2/ru-RU/apps/eedcc9b7-9f8e-4526-806d-ad0101c62d62/reviews?afterMarker=AAAAAQAAn48BCZl57aGwmFfUwk2gRMcf6ShWYw%3d%3d&chunkSize=10&orderBy=Default HTTP/1.1
Accept-Encoding: gzip
User-Agent: ZDM/4.0; Windows Mobile 7.0;
Host: catalog.zune.net
Connection: Keep-Alive


//=============================================================================
// RESPONSE
// Getting the application reviews.
//=============================================================================

<?xml version="1.0" encoding="utf-8"?>
<a:feed xmlns:a="http://www.w3.org/2005/Atom"
		xmlns:os="http://a9.com/-/spec/opensearch/1.1/"
		xmlns="http://schemas.zune.net/catalog/apps/2008/02">
	<a:link rel="prev" type="application/atom+xml"
			href="/v3.2/ru-RU/apps/eedcc9b7-9f8e-4526-806d-ad0101c62d62/reviews?beforeMarker=AAAAAQAAn5kBTJzB72uFaYS8jUi9bGGoQBiN2g%3d%3d&amp;chunkSize=10&amp;orderBy=Default" />
	<a:link rel="next" type="application/atom+xml"
			href="/v3.2/ru-RU/apps/eedcc9b7-9f8e-4526-806d-ad0101c62d62/reviews?afterMarker=AAAAAQAAn48BCZl57aGwmFfUwk2gRMcf6ShWYw%3d%3d&amp;chunkSize=10&amp;orderBy=Default" />
	<a:link rel="self" type="application/atom+xml"
			href="/v3.2/ru-RU/apps/eedcc9b7-9f8e-4526-806d-ad0101c62d62/reviews?chunkSize=10&amp;orderBy=Default" />
	<a:updated>2011-11-13T10:29:15.30633Z</a:updated>
	<a:title type="text">List Of Items</a:title>
	<a:id>tag:catalog.zune.net,2011-11-13:/apps/eedcc9b7-9f8e-4526-806d-ad0101c62d62/reviews</a:id>
	<a:entry>
		<a:updated>2011-11-12T20:11:00.27Z</a:updated>
		<a:title type="text"></a:title>
		<a:id>tag:catalog.zune.net,2011-11-13:/apps/eedcc9b7-9f8e-4526-806d-ad0101c62d62/reviews</a:id>
		<a:content type="html">Тормозит на Моцарта!!!!</a:content>
		<a:author>
			<a:name>Player172155995</a:name>
		</a:author>
		<userRating>2</userRating>
	</a:entry>
	<a:entry>
		<a:updated>2011-11-11T14:15:00.123Z</a:updated>
		<a:title type="text">Offline TBT</a:title>
		<a:id>tag:catalog.zune.net,2011-11-13:/apps/eedcc9b7-9f8e-4526-806d-ad0101c62d62/reviews</a:id>
		<a:content type="html">Хорошо!</a:content>
		<a:author>
			<a:name>Zoran Golubivic</a:name>
		</a:author>
		<userRating>10</userRating>
	</a:entry>
	<a:entry>
		<a:updated>2011-11-11T13:56:00.42Z</a:updated>
		<a:title type="text"></a:title>
		<a:id>tag:catalog.zune.net,2011-11-13:/apps/eedcc9b7-9f8e-4526-806d-ad0101c62d62/reviews</a:id>
		<a:content type="html"></a:content>
		<a:author>
			<a:name>XYBoy7</a:name>
		</a:author>
		<userRating>10</userRating>
	</a:entry>
	<a:entry>
		<a:updated>2011-11-07T15:37:00.473Z</a:updated>
		<a:title type="text"></a:title>
		<a:id>tag:catalog.zune.net,2011-11-13:/apps/eedcc9b7-9f8e-4526-806d-ad0101c62d62/reviews</a:id>
		<a:content type="html"></a:content>
		<a:author>
			<a:name>WombedEye6066</a:name>
		</a:author>
		<userRating>2</userRating>
	</a:entry>
	<a:entry>
		<a:updated>2011-11-06T16:49:01.05Z</a:updated>
		<a:title type="text"></a:title>
		<a:id>tag:catalog.zune.net,2011-11-13:/apps/eedcc9b7-9f8e-4526-806d-ad0101c62d62/reviews</a:id>
		<a:content type="html"></a:content>
		<a:author>
			<a:name>klistron12</a:name>
		</a:author>
		<userRating>10</userRating>
	</a:entry>
	<a:entry>
		<a:updated>2011-11-06T14:09:00.843Z</a:updated>
		<a:title type="text"></a:title>
		<a:id>tag:catalog.zune.net,2011-11-13:/apps/eedcc9b7-9f8e-4526-806d-ad0101c62d62/reviews</a:id>
		<a:content type="html">Местоположение определяет нормально. Нет номеров домов. Много места на экране занимает окно с информацией. Дороговато.</a:content>
		<a:author>
			<a:name>Player antoni m</a:name>
		</a:author>
		<userRating>6</userRating>
	</a:entry>
	<a:entry>
		<a:updated>2011-11-05T19:16:00.503Z</a:updated>
		<a:title type="text"></a:title>
		<a:id>tag:catalog.zune.net,2011-11-13:/apps/eedcc9b7-9f8e-4526-806d-ad0101c62d62/reviews</a:id>
		<a:content type="html">Ждём навител-лутчше НЕТ</a:content>
		<a:author>
			<a:name>Player661460544</a:name>
		</a:author>
		<userRating>2</userRating>
	</a:entry>
	<a:entry>
		<a:updated>2011-11-04T16:42:00.95Z</a:updated>
		<a:title type="text"></a:title>
		<a:id>tag:catalog.zune.net,2011-11-13:/apps/eedcc9b7-9f8e-4526-806d-ad0101c62d62/reviews</a:id>
		<a:content type="html"></a:content>
		<a:author>
			<a:name>Ivan467272</a:name>
		</a:author>
		<userRating>10</userRating>
	</a:entry>
	<a:entry>
		<a:updated>2011-11-02T19:59:00.81Z</a:updated>
		<a:title type="text"></a:title>
		<a:id>tag:catalog.zune.net,2011-11-13:/apps/eedcc9b7-9f8e-4526-806d-ad0101c62d62/reviews</a:id>
		<a:content type="html">В самом Санкт Петербурге, мое местоположение определило как неизвестное. Ну как довериться такой дикой навигации. Карты, похоже перерисованы карандашом от руки. В топку ее!!! Ни в коем случае денег не давать, можно поюзать сутки на-халяву и все ясно станет. </a:content>
		<a:author>
			<a:name>PrintFatalError</a:name>
		</a:author>
		<userRating>2</userRating>
	</a:entry>
	<a:entry>
		<a:updated>2011-11-02T16:07:01.097Z</a:updated>
		<a:title type="text"></a:title>
		<a:id>tag:catalog.zune.net,2011-11-13:/apps/eedcc9b7-9f8e-4526-806d-ad0101c62d62/reviews</a:id>
		<a:content type="html">Мне это нравится. Он подходит для моих потребностей.</a:content>
		<a:author>
			<a:name>I love volga</a:name>
		</a:author>
		<userRating>10</userRating>
	</a:entry>
</a:feed>
